[
    {
        "id": "181eb15cba438b96",
        "type": "tab",
        "label": "user_interface",
        "disabled": false,
        "info": "",
        "env": []
    },
    {
        "id": "830970d87614ef59",
        "type": "ui_button",
        "z": "181eb15cba438b96",
        "name": "",
        "group": "fdce087bc8cf7137",
        "order": 5,
        "width": 0,
        "height": 0,
        "passthru": false,
        "label": "Start FSM",
        "tooltip": "",
        "color": "",
        "bgcolor": "green",
        "className": "",
        "icon": "",
        "payload": "start",
        "payloadType": "str",
        "topic": "topic",
        "topicType": "msg",
        "x": 240,
        "y": 980,
        "wires": [
            [
                "a0d3e8d0baf672cc"
            ]
        ]
    },
    {
        "id": "a0d3e8d0baf672cc",
        "type": "exec",
        "z": "181eb15cba438b96",
        "command": "bash -c \"exec -a talker_check_task_clock python /fit-safety/hri_setup/src/rosop/scripts/talker_check_task_clock.py\"",
        "addpay": "",
        "append": "",
        "useSpawn": "false",
        "timer": "",
        "winHide": false,
        "oldrc": false,
        "name": "FSM",
        "x": 510,
        "y": 980,
        "wires": [
            [
                "5f14d413bc91f97a"
            ],
            [
                "5f14d413bc91f97a"
            ],
            [
                "5f14d413bc91f97a"
            ]
        ]
    },
    {
        "id": "5f14d413bc91f97a",
        "type": "debug",
        "z": "181eb15cba438b96",
        "name": "",
        "active": true,
        "tosidebar": true,
        "console": false,
        "tostatus": false,
        "complete": "false",
        "statusVal": "",
        "statusType": "auto",
        "x": 970,
        "y": 980,
        "wires": []
    },
    {
        "id": "912aeb175525cdad",
        "type": "exec",
        "z": "181eb15cba438b96",
        "command": "gnome-terminal -- bash -c \"source /fit-safety/ur5_ws/devel/setup.bash;roslaunch rviz_safety demo_rviz.launch\"",
        "addpay": "",
        "append": "",
        "useSpawn": "false",
        "timer": "",
        "winHide": false,
        "oldrc": false,
        "name": "Launch rviz",
        "x": 510,
        "y": 1100,
        "wires": [
            [
                "03875515f2e9892a"
            ],
            [
                "03875515f2e9892a"
            ],
            [
                "03875515f2e9892a"
            ]
        ]
    },
    {
        "id": "2ed5ee0fce02d85b",
        "type": "ui_button",
        "z": "181eb15cba438b96",
        "name": "",
        "group": "fdce087bc8cf7137",
        "order": 7,
        "width": 0,
        "height": 0,
        "passthru": false,
        "label": "Launch Rviz",
        "tooltip": "",
        "color": "",
        "bgcolor": "green",
        "className": "",
        "icon": "",
        "payload": "start",
        "payloadType": "str",
        "topic": "topic",
        "topicType": "msg",
        "x": 290,
        "y": 1100,
        "wires": [
            [
                "912aeb175525cdad"
            ]
        ]
    },
    {
        "id": "b2eed291d04b5fd4",
        "type": "ui_button",
        "z": "181eb15cba438b96",
        "name": "",
        "group": "fdce087bc8cf7137",
        "order": 6,
        "width": 0,
        "height": 0,
        "passthru": false,
        "label": "Stop FSM",
        "tooltip": "",
        "color": "",
        "bgcolor": "green",
        "className": "",
        "icon": "",
        "payload": "start",
        "payloadType": "str",
        "topic": "topic",
        "topicType": "msg",
        "x": 240,
        "y": 1240,
        "wires": [
            [
                "9c8a84415d75b84f"
            ]
        ]
    },
    {
        "id": "9c8a84415d75b84f",
        "type": "exec",
        "z": "181eb15cba438b96",
        "command": "pkill -f talker_check_task_clock",
        "addpay": "",
        "append": "",
        "useSpawn": "false",
        "timer": "",
        "winHide": false,
        "oldrc": false,
        "name": "Kill FSM",
        "x": 480,
        "y": 1240,
        "wires": [
            [
                "5f14d413bc91f97a"
            ],
            [
                "5f14d413bc91f97a"
            ],
            [
                "5f14d413bc91f97a"
            ]
        ]
    },
    {
        "id": "f31cca88a8c406e0",
        "type": "switch",
        "z": "181eb15cba438b96",
        "name": "",
        "property": "payload",
        "propertyType": "msg",
        "rules": [
            {
                "t": "true"
            },
            {
                "t": "false"
            }
        ],
        "checkall": "true",
        "repair": false,
        "outputs": 2,
        "x": 310,
        "y": 480,
        "wires": [
            [
                "73c5183e9708ee9d"
            ],
            [
                "9caeddc6e92a0b76"
            ]
        ]
    },
    {
        "id": "04579783e13ef891",
        "type": "ui_switch",
        "z": "181eb15cba438b96",
        "name": "",
        "label": "Record",
        "tooltip": "",
        "group": "fdce087bc8cf7137",
        "order": 8,
        "width": 0,
        "height": 0,
        "passthru": true,
        "decouple": "false",
        "topic": "topic",
        "topicType": "msg",
        "style": "",
        "onvalue": "true",
        "onvalueType": "bool",
        "onicon": "",
        "oncolor": "",
        "offvalue": "false",
        "offvalueType": "bool",
        "officon": "",
        "offcolor": "",
        "animate": false,
        "className": "",
        "x": 140,
        "y": 480,
        "wires": [
            [
                "f31cca88a8c406e0"
            ]
        ]
    },
    {
        "id": "73c5183e9708ee9d",
        "type": "exec",
        "z": "181eb15cba438b96",
        "command": "rosbag record -O recording /joint_states /q3/hand_pixel_position /q3/hand_in_frame /q3/human_intervention /q3/time_stamp __name:=record_bag",
        "addpay": "",
        "append": "",
        "useSpawn": "false",
        "timer": "",
        "winHide": false,
        "oldrc": false,
        "name": "Start record_bag Node",
        "x": 540,
        "y": 440,
        "wires": [
            [
                "03875515f2e9892a"
            ],
            [
                "03875515f2e9892a"
            ],
            [
                "03875515f2e9892a"
            ]
        ]
    },
    {
        "id": "9caeddc6e92a0b76",
        "type": "exec",
        "z": "181eb15cba438b96",
        "command": "rosnode kill /record_bag",
        "addpay": "",
        "append": "",
        "useSpawn": "false",
        "timer": "",
        "winHide": false,
        "oldrc": false,
        "name": "Kill record_bag Node",
        "x": 540,
        "y": 540,
        "wires": [
            [
                "03875515f2e9892a"
            ],
            [
                "03875515f2e9892a"
            ],
            [
                "b1b24bccaf248a85"
            ]
        ]
    },
    {
        "id": "03875515f2e9892a",
        "type": "debug",
        "z": "181eb15cba438b96",
        "name": "",
        "active": true,
        "tosidebar": true,
        "console": false,
        "tostatus": false,
        "complete": "payload",
        "targetType": "msg",
        "statusVal": "",
        "statusType": "auto",
        "x": 1350,
        "y": 540,
        "wires": []
    },
    {
        "id": "b1b24bccaf248a85",
        "type": "exec",
        "z": "181eb15cba438b96",
        "command": "python /fit-safety/ur5_ws/src/rviz_safety/script/ros_readbagfile.py recording.bag /joint_states /q3/hand_pixel_position /q3/hand_in_frame > scene_z.yaml",
        "addpay": "",
        "append": "",
        "useSpawn": "false",
        "timer": "",
        "winHide": false,
        "oldrc": false,
        "name": "Reformat recording to YAML file",
        "x": 950,
        "y": 540,
        "wires": [
            [
                "03875515f2e9892a"
            ],
            [
                "03875515f2e9892a"
            ],
            [
                "03875515f2e9892a"
            ]
        ]
    },
    {
        "id": "d5e6c8a83fa3801c",
        "type": "exec",
        "z": "181eb15cba438b96",
        "command": "gnome-terminal -- bash -c \"roslaunch realsense2_camera rs_camera.launch align_depth:=True serial_no:=947122061051\"",
        "addpay": "",
        "append": "",
        "useSpawn": "false",
        "timer": "",
        "winHide": false,
        "oldrc": false,
        "name": "Camera",
        "x": 500,
        "y": 780,
        "wires": [
            [
                "03875515f2e9892a"
            ],
            [
                "03875515f2e9892a"
            ],
            [
                "03875515f2e9892a"
            ]
        ]
    },
    {
        "id": "2fad661907ed86f7",
        "type": "exec",
        "z": "181eb15cba438b96",
        "command": "gnome-terminal -- bash -c \"cd /fit-safety/hri_setup/;source devel/setup.bash;source openpose-env/bin/activate;roscd rosop;python scripts/hand_pixel_perception.py\"",
        "addpay": "",
        "append": "",
        "useSpawn": "false",
        "timer": "",
        "winHide": false,
        "oldrc": false,
        "name": "Perception",
        "x": 590,
        "y": 860,
        "wires": [
            [
                "03875515f2e9892a"
            ],
            [
                "03875515f2e9892a"
            ],
            [
                "03875515f2e9892a"
            ]
        ]
    },
    {
        "id": "f0984746469b2a05",
        "type": "exec",
        "z": "181eb15cba438b96",
        "command": "gnome-terminal -- bash -c \"source /fit-safety/ur5_ws/devel/setup.bash;roslaunch ur_control_wrapper ur5e_jenny_control.launch;exec bash\"",
        "addpay": "",
        "append": "",
        "useSpawn": "false",
        "timer": "",
        "winHide": false,
        "oldrc": false,
        "name": "Core",
        "x": 550,
        "y": 220,
        "wires": [
            [
                "03875515f2e9892a"
            ],
            [
                "03875515f2e9892a"
            ],
            [
                "03875515f2e9892a"
            ]
        ]
    },
    {
        "id": "97ee0e805d8e72c8",
        "type": "exec",
        "z": "181eb15cba438b96",
        "command": "gnome-terminal -- bash -c \"source /fit-safety/ur5_ws/devel/setup.bash;(echo -e \"q3\" && cat) | rosrun ur_control_wrapper demo_q3.py;exec bash\"",
        "addpay": "",
        "append": "",
        "useSpawn": "false",
        "timer": "",
        "winHide": false,
        "oldrc": false,
        "name": "Q3",
        "x": 550,
        "y": 320,
        "wires": [
            [
                "03875515f2e9892a"
            ],
            [
                "03875515f2e9892a"
            ],
            [
                "03875515f2e9892a"
            ]
        ]
    },
    {
        "id": "5b26547c143b268c",
        "type": "exec",
        "z": "181eb15cba438b96",
        "command": "bash -c \"python /fit-safety/ur5_ws/src/rviz_safety/script/generate_safety_ribbon.py\"",
        "addpay": "",
        "append": "",
        "useSpawn": "false",
        "timer": "",
        "winHide": false,
        "oldrc": false,
        "name": "Generate Safety Ribbon",
        "x": 550,
        "y": 620,
        "wires": [
            [
                "03875515f2e9892a"
            ],
            [
                "03875515f2e9892a"
            ],
            [
                "03875515f2e9892a"
            ]
        ]
    },
    {
        "id": "d053dc7cd51127fb",
        "type": "exec",
        "z": "181eb15cba438b96",
        "command": "bash -c \"python /fit-safety/ur5_ws/src/rviz_safety/script/scene_replay.py\"",
        "addpay": "",
        "append": "",
        "useSpawn": "false",
        "timer": "",
        "winHide": false,
        "oldrc": false,
        "name": "Replay recording.bag",
        "x": 540,
        "y": 700,
        "wires": [
            [
                "03875515f2e9892a"
            ],
            [
                "03875515f2e9892a"
            ],
            [
                "03875515f2e9892a"
            ]
        ]
    },
    {
        "id": "8fbdf390e272f2d1",
        "type": "ui_button",
        "z": "181eb15cba438b96",
        "name": "",
        "group": "fdce087bc8cf7137",
        "order": 2,
        "width": 0,
        "height": 0,
        "passthru": false,
        "label": "Start Camera",
        "tooltip": "",
        "color": "",
        "bgcolor": "green",
        "className": "",
        "icon": "",
        "payload": "start",
        "payloadType": "str",
        "topic": "topic",
        "topicType": "msg",
        "x": 270,
        "y": 780,
        "wires": [
            [
                "d5e6c8a83fa3801c"
            ]
        ]
    },
    {
        "id": "54d548fc0832d125",
        "type": "ui_button",
        "z": "181eb15cba438b96",
        "name": "",
        "group": "fdce087bc8cf7137",
        "order": 3,
        "width": 0,
        "height": 0,
        "passthru": false,
        "label": "Start Perception Node",
        "tooltip": "",
        "color": "",
        "bgcolor": "green",
        "className": "",
        "icon": "",
        "payload": "start",
        "payloadType": "str",
        "topic": "topic",
        "topicType": "msg",
        "x": 280,
        "y": 860,
        "wires": [
            [
                "2fad661907ed86f7"
            ]
        ]
    },
    {
        "id": "92056303d4db02e3",
        "type": "ui_button",
        "z": "181eb15cba438b96",
        "name": "",
        "group": "fdce087bc8cf7137",
        "order": 1,
        "width": 0,
        "height": 0,
        "passthru": false,
        "label": "Start Running",
        "tooltip": "",
        "color": "",
        "bgcolor": "green",
        "className": "",
        "icon": "",
        "payload": "start",
        "payloadType": "str",
        "topic": "topic",
        "topicType": "msg",
        "x": 300,
        "y": 220,
        "wires": [
            [
                "f0984746469b2a05"
            ]
        ]
    },
    {
        "id": "9bcf10f69ac1cf04",
        "type": "ui_button",
        "z": "181eb15cba438b96",
        "name": "",
        "group": "fdce087bc8cf7137",
        "order": 4,
        "width": 0,
        "height": 0,
        "passthru": false,
        "label": "Start Q3 Node",
        "tooltip": "",
        "color": "",
        "bgcolor": "green",
        "className": "",
        "icon": "",
        "payload": "start",
        "payloadType": "str",
        "topic": "topic",
        "topicType": "msg",
        "x": 300,
        "y": 320,
        "wires": [
            [
                "97ee0e805d8e72c8"
            ]
        ]
    },
    {
        "id": "8b8f36de39cd36e4",
        "type": "ui_button",
        "z": "181eb15cba438b96",
        "name": "",
        "group": "fdce087bc8cf7137",
        "order": 9,
        "width": 0,
        "height": 0,
        "passthru": false,
        "label": "Replay Bag",
        "tooltip": "",
        "color": "",
        "bgcolor": "green",
        "className": "",
        "icon": "",
        "payload": "start",
        "payloadType": "str",
        "topic": "topic",
        "topicType": "msg",
        "x": 270,
        "y": 620,
        "wires": [
            [
                "5b26547c143b268c",
                "d053dc7cd51127fb"
            ]
        ]
    },
    {
        "id": "fdce087bc8cf7137",
        "type": "ui_group",
        "name": "Program Status",
        "tab": "a2e20c9c1fe0cf34",
        "order": 3,
        "disp": true,
        "width": "6",
        "collapse": false,
        "className": ""
    },
    {
        "id": "a2e20c9c1fe0cf34",
        "type": "ui_tab",
        "name": "Home",
        "icon": "dashboard",
        "disabled": false,
        "hidden": false
    }
]